// Jest Snapshot v1, https://goo.gl/fbAQLP

exports[`main actions choose posts 1`] = `
Object {
  "payload": "id",
  "type": "@main/CHOOSE_POST",
}
`;

exports[`main actions choose sort 1`] = `
Object {
  "payload": "top",
  "type": "@main/CHOOSE_SORT",
}
`;
